Região - Sigla  Estado - Sigla  Município  Revenda  Instalação - Código  Produto  Data da Coleta  Valor de Compra  Valor de Venda  Unidade de Medida  Bandeira
CO  DF  BRASILIA  AUTO POSTO BRAGA LTDA  7890  DIESEL  03/01/2018    3,699  R$ / litro  IPIRANGA
CO  DF  BRASILIA  AUTO POSTO CHAVES LTDA  7970  DIESEL  03/01/2018  3,218  3,559  R$ / litro  PETROBRAS DISTRIBUIDORA S.A.
CO  DF  BRASILIA  AUTO POSTO JB LIMITADA  7990  DIESEL  03/01/2018  3,1505  3,489  R$ / litro  PETROBRAS DISTRIBUIDORA S.A.
CO  DF  BRASILIA  AUTO POSTO SAO JUDAS TADEU LTDA  166827  DIESEL  03/01/2018    3,199  R$ / litro  IPIRANGA
CO  DF  BRASILIA  BRASAL COMBUSTIVEIS LTDA  8048  DIESEL  03/01/2018    3,599  R$ / litro  RAIZEN
CO  GO  AGUAS LINDAS DE GOIAS  AGUAS LINDAS POSTO SERVICOS LTDA  10446  DIESEL  04/01/2018    3,75  R$ / litro  RAIZEN
CO  GO  AGUAS LINDAS DE GOIAS  AUTO POSTO JARDIM BRASILIA LTDA  59314  DIESEL  04/01/2018  3,1698  3,799  R$ / litro  PETROBRAS DISTRIBUIDORA S.A.
CO  GO  AGUAS LINDAS DE GOIAS  MIZUNO KAY & CIA LTDA  59317  DIESEL  04/01/2018    3,69  R$ / litro  PETROBRAS DISTRIBUIDORA S.A.
CO  GO  AGUAS LINDAS DE GOIAS  REAL AUTO POSTO E SERVIÇOS LTDA.  59315  DIESEL  04/01/2018    3,75  R$ / litro  PETROBRAS DISTRIBUIDORA S.A.
CO  GO  AGUAS LINDAS DE GOIAS  AGUAS LINDAS POSTO SERVICOS LTDA  10446  DIESEL  10/01/2018    3,75  R$ / litro  RAIZEN
CO  MT  ALTA FLORESTA  AUTO POSTO APARECIDA DO NORTE LTDA  15844  DIESEL  03/01/2018  3,167  4,059  R$ / litro  PETROBRAS DISTRIBUIDORA S.A.
CO  MT  ALTA FLORESTA  AUTO POSTO BURIOL LTDA  15842  DIESEL  03/01/2018    4,05  R$ / litro  PETROBRAS DISTRIBUIDORA S.A.
CO  MT  ALTA FLORESTA  AUTO POSTO CANINDE LTDA  15843  DIESEL  03/01/2018    4,04  R$ / litro  BRANCA
CO  MT  ALTA FLORESTA  AUTO POSTO FLORESTA LTDA.  15846  DIESEL  03/01/2018  3,036  4,04  R$ / litro  PETROBRAS DISTRIBUIDORA S.A.
CO  MT  ALTA FLORESTA  AUTO POSTO ITAOCA LTDA - ME  197821  DIESEL  03/01/2018    4,05  R$ / litro  IPIRANGA
CO  MS  CAMPO GRANDE  ABASTECEDORA APARECIDA DO NORTE LTDA  15318  DIESEL  04/01/2018  3,1836  3,759  R$ / litro  PETROBRAS DISTRIBUIDORA S.A.
CO  MS  CAMPO GRANDE  ALBATROZ COMERCIAL DE PETROLEO LTDA  195517  DIESEL  04/01/2018  3,1786  3,599  R$ / litro  TAURUS
CO  MS  CAMPO GRANDE  AUTO POSTO FÊNIX LTDA.  15114  DIESEL  04/01/2018  3,2041  3,65  R$ / litro  PETROBRAS DISTRIBUIDORA S.A.
CO  MS  CAMPO GRANDE  AUTO POSTO MILENIO LTDA  15347  DIESEL  04/01/2018  3,1859  3,673  R$ / litro  PETROBRAS DISTRIBUIDORA S.A.
CO  MS  CAMPO GRANDE  AUTO POSTO NORTE SUL LTDA  15250  DIESEL  04/01/2018  3,1847  3,699  R$ / litro  PETROBRAS DISTRIBUIDORA S.A.
N   AM  ITACOATIARA  ADRIANO MARQUES FRANCO - ME  5048  DIESEL  02/01/2018  2,9487  3,68  R$ / litro  BRANCA
N   AM  ITACOATIARA  EMAQUISON DOS SANTOS FERREIRA - ME  5030  DIESEL  02/01/2018  3,1  3,84  R$ / litro  ATEM' S
N   AM  ITACOATIARA  MARCOS ANTONIO DA SILVA CABRAL  5019  DIESEL  02/01/2018  3,02  3,95  R$ / litro  BRANCA
N   AM  ITACOATIARA  MARCOS ANTONIO DA SILVA CABRAL  5049  DIESEL  02/01/2018  2,91  3,75  R$ / litro  BRANCA
N   AM  ITACOATIARA  POSTO FERREIRA LTDA - ME.  5036  DIESEL  02/01/2018  3,042  3,53  R$ / litro  ATEM' S
N   RO  ARIQUEMES  AUTO POSTO MINUANO LTDA.  180245  DIESEL  03/01/2018    3,69  R$ / litro  PETROBRAS DISTRIBUIDORA S.A.
N   RO  ARIQUEMES  AUTO POSTO SILVESTRE COMÉRCIO DE COMBUTÍVEIS EIRELI  25597  DIESEL  03/01/2018  3,203  3,68  R$ / litro  PETROBRAS DISTRIBUIDORA S.A.
N   RO  ARIQUEMES  CAMPOS & LUNA LTDA  25624  DIESEL  03/01/2018    3,499  R$ / litro  ATEM' S
N   RO  ARIQUEMES  CENTRAL POSTO POLEGATO & SOUZA LTDA  25615  DIESEL  03/01/2018    3,69  R$ / litro  PETROBRAS DISTRIBUIDORA S.A.
N   RO  ARIQUEMES  CLAUDIO FERREIRA DE LIMA & CIA LTDA  25613  DIESEL  03/01/2018    3,67  R$ / litro  SABBÁ
N   AC  CRUZEIRO DO SUL  AEROBRAN DISTRIBUIDORA IMPORTACAO E EXPORTACAO LTDA  4478  DIESEL S10  02/01/2018  3,7517  4,47  R$ / litro  BRANCA
N   AC  CRUZEIRO DO SUL  CARDINAL E OLIVEIRA LTDA  4476  DIESEL S10  02/01/2018    4,49  R$ / litro  BRANCA
N   AC  CRUZEIRO DO SUL  J. ARAUJO DE OLIVEIRA  175392  DIESEL S10  02/01/2018    4,49  R$ / litro  PETROBRAS DISTRIBUIDORA S.A.
N   AC  CRUZEIRO DO SUL  AEROBRAN DISTRIBUIDORA IMPORTACAO E EXPORTACAO LTDA  4478  DIESEL S10  09/01/2018  3,7517  4,47  R$ / litro  BRANCA
N   AC  CRUZEIRO DO SUL  CARDINAL E OLIVEIRA LTDA  4476  DIESEL S10  09/01/2018    4,49  R$ / litro  BRANCA
N   RR  BOA VISTA  A P FACCIO  25927  DIESEL  02/01/2018  3,0849  3,5  R$ / litro  PETROBRAS DISTRIBUIDORA S.A.
N   RR  BOA VISTA  AUTO POSTO ABEL GALINHA LIMITADA  187548  DIESEL  02/01/2018  2,963  3,5  R$ / litro  PETROBRAS DISTRIBUIDORA S.A.
N   RR  BOA VISTA  AUTO POSTO CAPITAL LTDA.  25909  DIESEL  02/01/2018  3,2022  3,45  R$ / litro  PETROBRAS DISTRIBUIDORA S.A.
N   RR  BOA VISTA  AUTO POSTO CINCO ESTRELAS LTDA  25918  DIESEL  02/01/2018  2,75  3,5  R$ / litro  BRANCA
N   RR  BOA VISTA  DISTRIBUIDORA DE DERIVADOS DE PETROLEO PINHEIRO LTDA  25976  DIESEL  02/01/2018  2,84  3,3  R$ / litro  ATEM' S
N   AP  MACAPA  AUTO POSTO TERCEIRO MILÊNIO LTDA  5196  DIESEL  02/01/2018  3,6017  3,93  R$ / litro  PETROBRAS DISTRIBUIDORA S.A.
N   AP  MACAPA  MACHADO E ANDRADE LTDA - EPP  5137  DIESEL  02/01/2018  3,5833  3,89  R$ / litro  IPIRANGA
N   AP  MACAPA  MONTE & FILHOS LTDA  5148  DIESEL  02/01/2018    3,89  R$ / litro  IPIRANGA
N   AP  MACAPA  POSTO DE COMBUSTIVEIS JARDINS EIRELI  154710  DIESEL  02/01/2018    3,72  R$ / litro  PETROBRAS DISTRIBUIDORA S.A.
N   AP  MACAPA  R E R EMPREENDIMENTOS EIRELI  158053  DIESEL  02/01/2018  3,4996  3,88  R$ / litro  IPIRANGA
N   PA  ABAETETUBA  AUTO POSTO COLONIAL LTDA - EPP  193430  DIESEL  04/01/2018    3,49  R$ / litro  SABBÁ
N   PA  ABAETETUBA  E CARVALHO COMERCIO E NAVEGACAO LTDA  16647  DIESEL  04/01/2018    3,54  R$ / litro  BRANCA
N   PA  ABAETETUBA  E CARVALHO COMERCIO E NAVEGACAO LTDA  16646  DIESEL  04/01/2018  3,0243  3,86  R$ / litro  IPIRANGA
N   PA  ABAETETUBA  E M C COMERCIO DE REFINADOS DE PETROLEO LTDA  168217  DIESEL  04/01/2018    3,69  R$ / litro  IPIRANGA
N   PA  ABAETETUBA  AUTO POSTO COLONIAL LTDA - EPP  193430  DIESEL  10/01/2018    3,49  R$ / litro  SABBÁ
NE  CE  CANINDE  FRANCISCO ERIVAN SANTOS JUSTA  7050  DIESEL  02/01/2018  3,0069  3,42  R$ / litro  BRANCA
NE  CE  CANINDE  J & J PESSOA COMERCIO DE COMBUSTIVEIS LTDA  179678  DIESEL  02/01/2018    3,399  R$ / litro  BRANCA
NE  CE  CANINDE  J & J PESSOA COMERCIO DE COMBUSTIVEIS LTDA  7056  DIESEL  02/01/2018  3,008  3,429  R$ / litro  BRANCA
NE  CE  CANINDE  JJ MARTINS PESSOA COMERCIO DE COMBUSTIVEIS LTDA  216160  DIESEL  02/01/2018  3,0098  3,44  R$ / litro  RAIZEN
NE  CE  CANINDE  JULIENIA SILVA PESSOA  7058  DIESEL  02/01/2018    3,45  R$ / litro  BRANCA
NE  RN  CAICO  AUTO POSTO NOVO MILENIO LTDA.  25086  DIESEL  03/01/2018    3,35  R$ / litro  BRANCA
NE  RN  CAICO  JOSE RICARDO DA SILVA  150258  DIESEL  03/01/2018    3,39  R$ / litro  BRANCA
NE  RN  CAICO  POSTO CAICO LTDA  25079  DIESEL  03/01/2018  2,937  3,42  R$ / litro  PETROBRAS DISTRIBUIDORA S.A.
NE  RN  CAICO  POSTO DE COMBUSTIVEL BOA VISTA LTDA  25069  DIESEL  03/01/2018    3,45  R$ / litro  PETROBRAS DISTRIBUIDORA S.A.
NE  RN  CAICO  WALFREDO LOPES & FILHOS LTDA  25078  DIESEL  03/01/2018    3,47  R$ / litro  PETROBRAS DISTRIBUIDORA S.A.
NE  PB  BAYEUX  ABASTECA COMERCIO DE COMBUSTIVEIS LTDA  17477  DIESEL  04/01/2018  3,0388  3,326  R$ / litro  PETROBRAS DISTRIBUIDORA S.A.
NE  PB  BAYEUX  FRANÇA COMBUSTÍVEIS LTDA.  17472  DIESEL  04/01/2018  3,0166  3,3  R$ / litro  PETROBRAS DISTRIBUIDORA S.A.
NE  PB  BAYEUX  MEGA POSTO DE COMBUSTIVEIS LTDA  17480  DIESEL  04/01/2018    3,22  R$ / litro  PETROBRAS DISTRIBUIDORA S.A.
NE  PB  BAYEUX  MOTOGAS INDUSTRIA DE COMPRESSAO E COMERCIO DE GAS NATURAL LTDA  17475  DIESEL  04/01/2018  2,899  3,19  R$ / litro  BRANCA
NE  PB  BAYEUX  PARELHAS GAS LTDA  130332  DIESEL  04/01/2018    3,28  R$ / litro  PETROBRAS DISTRIBUIDORA S.A.
NE  PB  BAYEUX  ABASTECA COMERCIO DE COMBUSTIVEIS LTDA  17477  DIESEL  10/01/2018  3,0388  3,326  R$ / litro  PETROBRAS DISTRIBUIDORA S.A.
NE  PE  ARARIPINA  FERNANDES & COELHO COMERCIO COMBUSTIVEL LTDA  170832  DIESEL  02/01/2018  2,9315  3,299  R$ / litro  BRANCA
NE  PE  ARARIPINA  FRANCISCO EDILAM DE SOUZA NOBRE  167935  DIESEL  02/01/2018    3,259  R$ / litro  BRANCA
NE  PE  ARARIPINA  JUVENAL ANGELO & CIA LTDA  17976  DIESEL  02/01/2018    3,299  R$ / litro  RAIZEN
NE  PE  ARARIPINA  NEANDRO COELHO MODESTO  166306  DIESEL  02/01/2018    3,24  R$ / litro  BRANCA
NE  PE  ARARIPINA  NEANDRO COELHO MODESTO  182952  DIESEL  02/01/2018    3,35  R$ / litro  BRANCA
NE  AL  ARAPIRACA  AUTO POSTO BATINGAS LTDA  198879  DIESEL  02/01/2018  3,0271  3,319  R$ / litro  PETROBRAS DISTRIBUIDORA S.A.
NE  AL  ARAPIRACA  AUTO POSTO SAO FRANCISCO LTDA  4636  DIESEL  02/01/2018  3,1268  3,35  R$ / litro  PETROBRAS DISTRIBUIDORA S.A.
NE  AL  ARAPIRACA  COMERCIAL DE COMBUSTÍVEIS E LUBRIFICANTES VITAL LTDA.  4632  DIESEL  02/01/2018  3,1169  3,399  R$ / litro  PETROBRAS DISTRIBUIDORA S.A.
NE  AL  ARAPIRACA  IBN PINTO E SILVA & CIA LTDA  4660  DIESEL  02/01/2018  3,0507  3,279  R$ / litro  IPIRANGA
NE  AL  ARAPIRACA  IBN PINTO E SILVA & CIA LTDA  4659  DIESEL  02/01/2018  2,9581  3,25  R$ / litro  BRANCA
NE  SE  ARACAJU  J. F. COMERCIO DE COMBUSTIVEIS LTDA  180216  DIESEL  03/01/2018  3,117  3,399  R$ / litro  BRANCA
NE  SE  ARACAJU  REDE DE POSTOS PRESIDENTE LTDA  30308  DIESEL  03/01/2018    3,399  R$ / litro  PETROBRAS DISTRIBUIDORA S.A.
NE  SE  ARACAJU  VENEZA AUTO POSTO LTDA  30321  DIESEL  03/01/2018  3  3,35  R$ / litro  BRANCA
NE  SE  ARACAJU  J. F. COMERCIO DE COMBUSTIVEIS LTDA  180216  DIESEL  09/01/2018  2,9709  3,399  R$ / litro  BRANCA
NE  SE  ARACAJU  REDE DE POSTOS PRESIDENTE LTDA  205041  DIESEL  09/01/2018  3,1858  3,399  R$ / litro  PETROBRAS DISTRIBUIDORA S.A.
SE  SP  ADAMANTINA  AUTO POSTO CARREIRO LTDA  30546  DIESEL  03/01/2018  2,91  3,08  R$ / litro  BRANCA
SE  SP  ADAMANTINA  AUTO POSTO VANUIRE LTDA  162953  DIESEL  03/01/2018  2,8483  3,12  R$ / litro  BRANCA
SE  SP  ADAMANTINA  FRIOL & FILHO COMBUSTIVEIS LTDA - ME  155598  DIESEL  03/01/2018    3,249  R$ / litro  BRANCA
SE  SP  ADAMANTINA  LUCÍDIO DOMINGOS FRIZÃO - ME  183255  DIESEL  03/01/2018    3,38  R$ / litro  BRANCA
SE  SP  ADAMANTINA  MARCIO A SPOSITO TRANSPORTES LTDA  211880  DIESEL  03/01/2018    3,499  R$ / litro  IPIRANGA
SE  ES  ARACRUZ  AUTO POSTO BELA VISTA LTDA  167215  DIESEL  03/01/2018    3,09  R$ / litro  BRANCA
SE  ES  ARACRUZ  AUTO POSTO TRIVILIN LTDA  8149  DIESEL  03/01/2018    3,05  R$ / litro  BRANCA
SE  ES  ARACRUZ  AUTO POSTO 13 DE MAIO LTDA.  8145  DIESEL  03/01/2018    3,44  R$ / litro  PETROBRAS DISTRIBUIDORA S.A.
SE  ES  ARACRUZ  POSTO E HOTEL BARRA DO RIACHO - LTDA  8146  DIESEL  03/01/2018    3,63  R$ / litro  IPIRANGA
SE  ES  ARACRUZ  VESCOVI & BITTI LTDA  8147  DIESEL  03/01/2018    3,44  R$ / litro  PETROBRAS DISTRIBUIDORA S.A.
SE  RJ  ANGRA DOS REIS  AUTO POSTO CHOPOTRES LTDA  22713  DIESEL  05/03/2018  2,98  3,69  R$ / litro  PETROBRAS DISTRIBUIDORA S.A.
SE  RJ  ANGRA DOS REIS  POSTO DOS SANTOS REIS LTDA.  22715  DIESEL  05/03/2018    3,77  R$ / litro  PETROBRAS DISTRIBUIDORA S.A.
SE  RJ  ANGRA DOS REIS  AUTO POSTO CHOPOTRES LTDA  22713  DIESEL  13/03/2018  2,98  3,69  R$ / litro  PETROBRAS DISTRIBUIDORA S.A.
SE  RJ  ANGRA DOS REIS  AUTO POSTO CHOPOTRES LTDA  22713  DIESEL  20/03/2018  2,98  3,69  R$ / litro  PETROBRAS DISTRIBUIDORA S.A.
SE  RJ  ANGRA DOS REIS  AUTO POSTO CHOPOTRES LTDA  22713  DIESEL  26/03/2018    3,69  R$ / litro  PETROBRAS DISTRIBUIDORA S.A.
NE  BA  ALAGOINHAS  BELAZETH - DERIVADOS DE PETROLEO LTDA  200416  DIESEL  02/01/2018  3,0242  3,08  R$ / litro  RAIZEN
NE  BA  ALAGOINHAS  CPD ENERGÉTICOS E DERIVADOS DE PETRÓLEO LTDA.  5223  DIESEL  02/01/2018    3,07  R$ / litro  PETROBRAS DISTRIBUIDORA S.A.
NE  BA  ALAGOINHAS  MEIRELES COMERCIO DE DERIVADOS DE PETROLEO LTDA  5230  DIESEL  02/01/2018  2,922  3,279  R$ / litro  PETROSERRA
NE  BA  ALAGOINHAS  POSTO TROPICAL DE COMBUSTIVEIS LTDA - EPP  5227  DIESEL  02/01/2018    3,199  R$ / litro  BRANCA
NE  BA  ALAGOINHAS  RPMP COMERCIO DE COMBUSTIVEIS LTDA  5222  DIESEL  02/01/2018    3,03  R$ / litro  BRANCA
S   RS  ALEGRETE  COMBUSTIVEIS IBIRAPUITA LTDA  198519  DIESEL  03/01/2018    3,489  R$ / litro  RAIZEN
S   RS  ALEGRETE  COMBUSTIVEIS IBIRAPUITA LTDA  51951  DIESEL  03/01/2018  2,9714  3,49  R$ / litro  RAIZEN
S   RS  ALEGRETE  DIAS & COSTA COMERCIAL DE COMBUSTIVEIS LTDA  164430  DIESEL  03/01/2018    3,65  R$ / litro  IPIRANGA
S   RS  ALEGRETE  J A LIMA & CIA LTDA  51957  DIESEL  03/01/2018    3,499  R$ / litro  IPIRANGA
S   RS  ALEGRETE  COMBUSTIVEIS IBIRAPUITA LTDA  51951  DIESEL  10/01/2018  2,9714  3,49  R$ / litro  RAIZEN
S   PR  APUCARANA  AUTO POSTO AVIAÇÃO COMÉRCIO DE COMBUSTÍVEIS LTDA  48845  DIESEL  02/01/2018    3,29  R$ / litro  IPIRANGA
S   PR  APUCARANA  BRZ SUL COMERCIO DE COMBUSTIVEIS LTDA  158113  DIESEL  02/01/2018    3,28  R$ / litro  IPIRANGA
S   PR  APUCARANA  CASA ROSA COMBUSTÍVEIS S/A  48863  DIESEL  02/01/2018  2,9383  3,24  R$ / litro  RAIZEN
S   PR  APUCARANA  DCK - COMERCIO DE COMBUSTIVEIS LTDA  48846  DIESEL  02/01/2018    3,28  R$ / litro  PETROBRAS DISTRIBUIDORA S.A.
S   PR  APUCARANA  IRMÃOS GREGÓRIO LTDA.  183424  DIESEL  02/01/2018    3,19  R$ / litro  RAIZEN
S   SC  ARARANGUA  ARARANGUAENSE REVENDEDORA DE COMBUSTIVEIS E LUBRIFICANTES EIRELI  28845  DIESEL  02/01/2018    3,089  R$ / litro  RAIZEN
S   SC  ARARANGUA  AUTO POSTO DAMINELLI LTDA  28848  DIESEL  02/01/2018    3,099  R$ / litro  IPIRANGA
S   SC  ARARANGUA  F. G. FRATELLI CONSTRUTORA E COMERCIAL DE COMBUSTIVEIS LTDA  203997  DIESEL  02/01/2018    3,199  R$ / litro  BRANCA
S   SC  ARARANGUA  POSTO DE ABASTECIMENTO MORRO DOS CONVENTOS LTDA - EPP  28851  DIESEL  02/01/2018    2,979  R$ / litro  BRANCA
S   SC  ARARANGUA  REDE FURNAS COMERCIO DE COMBUSTIVEIS LTDA  28855  DIESEL  02/01/2018    3,149  R$ / litro  ALESAT
NE  PI  PARNAIBA  HELIO CORREIA LIMA - EPP  48707  DIESEL  04/01/2018    3,33  R$ / litro  BRANCA
NE  PI  PARNAIBA  PINHEIRAO COMBUSTIVEIS LTDA - EPP  167071  DIESEL  04/01/2018    3,499  R$ / litro  TDC DISTRIBUIDORA
NE  PI  PARNAIBA  POSTO MAIS PARNAIBA AEROPORTO LTDA  179606  DIESEL  04/01/2018    3,439  R$ / litro  IPIRANGA
NE  PI  PARNAIBA  POSTO PADRE CICERO LTDA.  48769  DIESEL  04/01/2018  2,966  3,3  R$ / litro  SP
NE  PI  PARNAIBA  SANTOS IND E COM LTDA  48772  DIESEL  04/01/2018  3,035  3,459  R$ / litro  PETROBRAS DISTRIBUIDORA S.A.
NE  MA  ACAILANDIA  AUTO POSTO VERDINHO LTDA. - ME.  43992  DIESEL  02/01/2018    3,319  R$ / litro  IPIRANGA
NE  MA  ACAILANDIA  CARLOS SOUSA COMBUSTIVEIS E LUBRIFICANTES LTDA  43991  DIESEL  02/01/2018  3,0459  3,399  R$ / litro  PETROBRAS DISTRIBUIDORA S.A.
NE  MA  ACAILANDIA  CARRETEIRO DERIVADOS DE PETROLEO LTDA  44007  DIESEL  02/01/2018    3,4  R$ / litro  BRANCA
NE  MA  ACAILANDIA  ECS COMBUSTIVEIS E LUBRIFICANTES LTDA - ME  223535  DIESEL  02/01/2018  3,099  3,399  R$ / litro  PETROBRAS DISTRIBUIDORA S.A.
NE  MA  ACAILANDIA  POSTO ICCAR LTDA  43994  DIESEL  02/01/2018  3,1391  3,37  R$ / litro  PETROBRAS DISTRIBUIDORA S.A.
